^D:\GT\SEMESTER 5\2. PRAKTIKUM PENGANTAR GRAFIKA KOMPUTER\SCALE-YOUR-BODY-PENGANTAR-GRAFIKA-KOMPUTER\OPENGL_VISUAL STUDIO\OPENGL_VISUAL STUDIO\DEBUG\GAME.OBJ|D:\GT\SEMESTER 5\2. PRAKTIKUM PENGANTAR GRAFIKA KOMPUTER\SCALE-YOUR-BODY-PENGANTAR-GRAFIKA-KOMPUTER\OPENGL_VISUAL STUDIO\OPENGL_VISUAL STUDIO\DEBUG\MAIN.OBJ|D:\GT\SEMESTER 5\2. PRAKTIKUM PENGANTAR GRAFIKA KOMPUTER\SCALE-YOUR-BODY-PENGANTAR-GRAFIKA-KOMPUTER\OPENGL_VISUAL STUDIO\OPENGL_VISUAL STUDIO\DEBUG\MENU.OBJ|D:\GT\SEMESTER 5\2. PRAKTIKUM PENGANTAR GRAFIKA KOMPUTER\SCALE-YOUR-BODY-PENGANTAR-GRAFIKA-KOMPUTER\OPENGL_VISUAL STUDIO\OPENGL_VISUAL STUDIO\DEBUG\OBSTACLE.OBJ|D:\GT\SEMESTER 5\2. PRAKTIKUM PENGANTAR GRAFIKA KOMPUTER\SCALE-YOUR-BODY-PENGANTAR-GRAFIKA-KOMPUTER\OPENGL_VISUAL STUDIO\OPENGL_VISUAL STUDIO\DEBUG\PLAYER.OBJ
D:\GT\SEMESTER 5\2. PRAKTIKUM PENGANTAR GRAFIKA KOMPUTER\SCALE-YOUR-BODY-PENGANTAR-GRAFIKA-KOMPUTER\OPENGL_VISUAL STUDIO\DEBUG\OPENGL_VISUAL STUDIO.EXE
D:\GT\SEMESTER 5\2. PRAKTIKUM PENGANTAR GRAFIKA KOMPUTER\SCALE-YOUR-BODY-PENGANTAR-GRAFIKA-KOMPUTER\OPENGL_VISUAL STUDIO\DEBUG\OPENGL_VISUAL STUDIO.ILK
D:\GT\SEMESTER 5\2. PRAKTIKUM PENGANTAR GRAFIKA KOMPUTER\SCALE-YOUR-BODY-PENGANTAR-GRAFIKA-KOMPUTER\OPENGL_VISUAL STUDIO\DEBUG\OPENGL_VISUAL STUDIO.PDB
